<?xml version="1.0" encoding="UTF-8" standalone="no"?>
<svg xmlns="http://www.w3.org/2000/svg" version="1.1" width="24" height="24">
    <g transform="translate(0,-1028.3622)">
        <path d="M 10 3 L 10 4.7871094 A 7.5000002 7.5000239 0 0 0 8.3105469 5.4824219 L 7.0507812 4.2226562 L 6.6972656 4.5761719 L 4.5761719 6.6972656 L 4.2226562 7.0507812 L 5.484375 8.3125 A 7.5000002 7.5000239 0 0 0 4.7773438 10 L 3 10 L 3 10.5 L 3 13.5 L 3 14 L 4.7871094 14 A 7.5000002 7.5000239 0 0 0 5.4824219 15.689453 L 4.2226562 16.949219 L 4.5761719 17.302734 L 6.6972656 19.423828 L 7.0507812 19.777344 L 8.3125 18.515625 A 7.5000002 7.5000239 0 0 0 10 19.222656 L 10 21 L 10.5 21 L 13.5 21 L 14 21 L 14 19.212891 A 7.5000002 7.5000239 0 0 0 15.689453 18.517578 L 16.949219 19.777344 L 17.302734 19.423828 L 19.423828 17.302734 L 19.777344 16.949219 L 18.515625 15.6875 A 7.5000002 7.5000239 0 0 0 19.222656 14 L 21 14 L 21 13.5 L 21 10.5 L 21 10 L 19.212891 10 A 7.5000002 7.5000239 0 0 0 18.517578 8.3105469 L 19.777344 7.0507812 L 19.423828 6.6972656 L 17.302734 4.5761719 L 16.949219 4.2226562 L 15.6875 5.484375 A 7.5000002 7.5000239 0 0 0 14 4.7773438 L 14 3 L 13.5 3 L 10.5 3 L 10 3 z M 12 7.5 A 4.5000001 4.5000143 0 0 1 16.5 12 A 4.5000001 4.5000143 0 0 1 12 16.5 A 4.5000001 4.5000143 0 0 1 7.5 12 A 4.5000001 4.5000143 0 0 1 12 7.5 z " fill="slategray" stroke="none" transform="translate(0,1028.3622)" />
    </g>
</svg>
